Terminals unused in grammar

    ERROR


Grammar

    0 $accept: program $end

    1 program: precomList declList
    2        | declList

    3 precomList: precomList PRECOMPILER
    4           | PRECOMPILER

    5 declList: declList decl
    6         | decl

    7 decl: varDecl
    8     | funDecl

    9 varDecl: typeSpec varDeclList ';'

   10 scopedVarDecl: STATIC typeSpec varDeclList ';'
   11              | typeSpec varDeclList ';'

   12 varDeclList: varDeclList ',' varDeclInit
   13            | varDeclInit

   14 varDeclInit: varDeclId
   15            | varDeclId ':' simpleExp

   16 varDeclId: ID
   17          | ID '[' NUMCONST ']'

   18 typeSpec: INT
   19         | BOOL
   20         | CHAR

   21 funDecl: typeSpec ID '(' parms ')' stmt
   22        | ID '(' parms ')' stmt

   23 parms: parmList
   24      | ε

   25 parmList: parmList ';' parmTypeList
   26         | parmTypeList

   27 parmTypeList: typeSpec parmIdList

   28 parmIdList: parmIdList ',' parmId
   29           | parmId

   30 parmId: ID
   31       | ID '[' ']'

   32 stmt: matched
   33     | unmatched

   34 matched: IF simpleExp THEN matched ELSE matched
   35        | WHILE simpleExp DO matched
   36        | FOR ID '=' iterRange DO matched
   37        | expStmt
   38        | compoundStmt
   39        | returnStmt
   40        | breakStmt

   41 iterRange: simpleExp TO simpleExp
   42          | simpleExp TO simpleExp BY simpleExp

   43 unmatched: IF simpleExp THEN stmt
   44          | IF simpleExp THEN matched ELSE unmatched
   45          | WHILE simpleExp DO unmatched
   46          | FOR ID '=' iterRange DO unmatched

   47 expStmt: exp ';'
   48        | ';'

   49 compoundStmt: '{' localDecls stmtList '}'

   50 localDecls: localDecls scopedVarDecl
   51           | ε

   52 stmtList: stmtList stmt
   53         | ε

   54 returnStmt: RETURN ';'
   55           | RETURN exp ';'

   56 breakStmt: BREAK ';'

   57 exp: mutable assignop exp
   58    | mutable INC
   59    | mutable DEC
   60    | simpleExp

   61 assignop: '='
   62         | ADDASS
   63         | SUBASS
   64         | MULASS
   65         | DIVASS

   66 simpleExp: simpleExp OR andExp
   67          | andExp

   68 andExp: andExp AND unaryRelExp
   69       | unaryRelExp

   70 unaryRelExp: NOT unaryRelExp
   71            | relExp

   72 relExp: minmaxExp relop minmaxExp
   73       | minmaxExp

   74 relop: LEQ
   75      | '<'
   76      | '>'
   77      | GEQ
   78      | EQ
   79      | NEQ

   80 minmaxExp: minmaxExp minmaxop sumExp
   81          | sumExp

   82 minmaxop: MAX
   83         | MIN

   84 sumExp: sumExp sumop mulExp
   85       | mulExp

   86 sumop: '+'
   87      | '-'

   88 mulExp: mulExp mulop unaryExp
   89       | unaryExp

   90 mulop: '*'
   91      | '/'
   92      | '%'

   93 unaryExp: unaryop unaryExp
   94         | factor

   95 unaryop: '-'
   96        | '*'
   97        | '?'

   98 factor: immutable
   99       | mutable

  100 mutable: ID
  101        | ID '[' exp ']'

  102 immutable: '(' exp ')'
  103          | call
  104          | constant

  105 call: ID '(' args ')'

  106 args: argList
  107     | ε

  108 argList: argList ',' exp
  109        | exp

  110 constant: NUMCONST
  111         | CHARCONST
  112         | STRINGCONST
  113         | BOOLCONST


Terminals, with rules where they appear

    $end (0) 0
    '%' <tinfo> (37) 92
    '(' <tinfo> (40) 21 22 102 105
    ')' <tinfo> (41) 21 22 102 105
    '*' <tinfo> (42) 90 96
    '+' <tinfo> (43) 86
    ',' <tinfo> (44) 12 28 108
    '-' <tinfo> (45) 87 95
    '/' <tinfo> (47) 91
    ':' <tinfo> (58) 15
    ';' <tinfo> (59) 9 10 11 25 47 48 54 55 56
    '<' <tinfo> (60) 75
    '=' <tinfo> (61) 36 46 61
    '>' <tinfo> (62) 76
    '?' <tinfo> (63) 97
    '[' <tinfo> (91) 17 31 101
    ']' <tinfo> (93) 17 31 101
    '{' <tinfo> (123) 49
    '}' <tinfo> (125) 49
    error (256)
    DEC <tinfo> (258) 59
    INC <tinfo> (259) 58
    MIN <tinfo> (260) 83
    MAX <tinfo> (261) 82
    MULASS <tinfo> (262) 64
    DIVASS <tinfo> (263) 65
    ADDASS <tinfo> (264) 62
    SUBASS <tinfo> (265) 63
    NEQ <tinfo> (266) 79
    GEQ <tinfo> (267) 77
    LEQ <tinfo> (268) 74
    EQ <tinfo> (269) 78
    AND <tinfo> (270) 68
    OR <tinfo> (271) 66
    NOT <tinfo> (272) 70
    BREAK <tinfo> (273) 56
    RETURN <tinfo> (274) 54 55
    STATIC <tinfo> (275) 10
    IF <tinfo> (276) 34 43 44
    THEN <tinfo> (277) 34 43 44
    ELSE <tinfo> (278) 34 44
    FOR <tinfo> (279) 36 46
    TO <tinfo> (280) 41 42
    BY <tinfo> (281) 42
    DO <tinfo> (282) 35 36 45 46
    WHILE <tinfo> (283) 35 45
    CHAR <tinfo> (284) 20
    INT <tinfo> (285) 18
    BOOL <tinfo> (286) 19
    PRECOMPILER <tinfo> (287) 3 4
    NUMCONST <tinfo> (288) 17 110
    CHARCONST <tinfo> (289) 111
    BOOLCONST <tinfo> (290) 113
    STRINGCONST <tinfo> (291) 112
    ID <tinfo> (292) 16 17 21 22 30 31 36 46 100 101 105
    ERROR <tinfo> (293)


Nonterminals, with rules where they appear

    $accept (57)
        on left: 0
    program <tree> (58)
        on left: 1 2
        on right: 0
    precomList <tree> (59)
        on left: 3 4
        on right: 1 3
    declList <tree> (60)
        on left: 5 6
        on right: 1 2 5
    decl <tree> (61)
        on left: 7 8
        on right: 5 6
    varDecl <tree> (62)
        on left: 9
        on right: 7
    scopedVarDecl <tree> (63)
        on left: 10 11
        on right: 50
    varDeclList <tree> (64)
        on left: 12 13
        on right: 9 10 11 12
    varDeclInit <tree> (65)
        on left: 14 15
        on right: 12 13
    varDeclId <tree> (66)
        on left: 16 17
        on right: 14 15
    typeSpec <expType> (67)
        on left: 18 19 20
        on right: 9 10 11 21 27
    funDecl <tree> (68)
        on left: 21 22
        on right: 8
    parms <tree> (69)
        on left: 23 24
        on right: 21 22
    parmList <tree> (70)
        on left: 25 26
        on right: 23 25
    parmTypeList <tree> (71)
        on left: 27
        on right: 25 26
    parmIdList <tree> (72)
        on left: 28 29
        on right: 27 28
    parmId <tree> (73)
        on left: 30 31
        on right: 28 29
    stmt <tree> (74)
        on left: 32 33
        on right: 21 22 43 52
    matched <tree> (75)
        on left: 34 35 36 37 38 39 40
        on right: 32 34 35 36 44
    iterRange <tree> (76)
        on left: 41 42
        on right: 36 46
    unmatched <tree> (77)
        on left: 43 44 45 46
        on right: 33 44 45 46
    expStmt <tree> (78)
        on left: 47 48
        on right: 37
    compoundStmt <tree> (79)
        on left: 49
        on right: 38
    localDecls <tree> (80)
        on left: 50 51
        on right: 49 50
    stmtList <tree> (81)
        on left: 52 53
        on right: 49 52
    returnStmt <tree> (82)
        on left: 54 55
        on right: 39
    breakStmt <tree> (83)
        on left: 56
        on right: 40
    exp <tree> (84)
        on left: 57 58 59 60
        on right: 47 55 57 101 102 108 109
    assignop <tinfo> (85)
        on left: 61 62 63 64 65
        on right: 57
    simpleExp <tree> (86)
        on left: 66 67
        on right: 15 34 35 41 42 43 44 45 60 66
    andExp <tree> (87)
        on left: 68 69
        on right: 66 67 68
    unaryRelExp <tree> (88)
        on left: 70 71
        on right: 68 69 70
    relExp <tree> (89)
        on left: 72 73
        on right: 71
    relop <tinfo> (90)
        on left: 74 75 76 77 78 79
        on right: 72
    minmaxExp <tree> (91)
        on left: 80 81
        on right: 72 73 80
    minmaxop <tinfo> (92)
        on left: 82 83
        on right: 80
    sumExp <tree> (93)
        on left: 84 85
        on right: 80 81 84
    sumop <tinfo> (94)
        on left: 86 87
        on right: 84
    mulExp <tree> (95)
        on left: 88 89
        on right: 84 85 88
    mulop <tinfo> (96)
        on left: 90 91 92
        on right: 88
    unaryExp <tree> (97)
        on left: 93 94
        on right: 88 89 93
    unaryop <tinfo> (98)
        on left: 95 96 97
        on right: 93
    factor <tree> (99)
        on left: 98 99
        on right: 94
    mutable <tree> (100)
        on left: 100 101
        on right: 57 58 59 99
    immutable <tree> (101)
        on left: 102 103 104
        on right: 98
    call <tree> (102)
        on left: 105
        on right: 103
    args <tree> (103)
        on left: 106 107
        on right: 105
    argList <tree> (104)
        on left: 108 109
        on right: 106 108
    constant <tree> (105)
        on left: 110 111 112 113
        on right: 104


State 0

    0 $accept: • program $end

    CHAR         shift, and go to state 1
    INT          shift, and go to state 2
    BOOL         shift, and go to state 3
    PRECOMPILER  shift, and go to state 4
    ID           shift, and go to state 5

    program     go to state 6
    precomList  go to state 7
    declList    go to state 8
    decl        go to state 9
    varDecl     go to state 10
    typeSpec    go to state 11
    funDecl     go to state 12


State 1

   20 typeSpec: CHAR •

    $default  reduce using rule 20 (typeSpec)


State 2

   18 typeSpec: INT •

    $default  reduce using rule 18 (typeSpec)


State 3

   19 typeSpec: BOOL •

    $default  reduce using rule 19 (typeSpec)


State 4

    4 precomList: PRECOMPILER •

    $default  reduce using rule 4 (precomList)


State 5

   22 funDecl: ID • '(' parms ')' stmt

    '('  shift, and go to state 13


State 6

    0 $accept: program • $end

    $end  shift, and go to state 14


State 7

    1 program: precomList • declList
    3 precomList: precomList • PRECOMPILER

    CHAR         shift, and go to state 1
    INT          shift, and go to state 2
    BOOL         shift, and go to state 3
    PRECOMPILER  shift, and go to state 15
    ID           shift, and go to state 5

    declList  go to state 16
    decl      go to state 9
    varDecl   go to state 10
    typeSpec  go to state 11
    funDecl   go to state 12


State 8

    2 program: declList •
    5 declList: declList • decl

    CHAR  shift, and go to state 1
    INT   shift, and go to state 2
    BOOL  shift, and go to state 3
    ID    shift, and go to state 5

    $default  reduce using rule 2 (program)

    decl      go to state 17
    varDecl   go to state 10
    typeSpec  go to state 11
    funDecl   go to state 12


State 9

    6 declList: decl •

    $default  reduce using rule 6 (declList)


State 10

    7 decl: varDecl •

    $default  reduce using rule 7 (decl)


State 11

    9 varDecl: typeSpec • varDeclList ';'
   21 funDecl: typeSpec • ID '(' parms ')' stmt

    ID  shift, and go to state 18

    varDeclList  go to state 19
    varDeclInit  go to state 20
    varDeclId    go to state 21


State 12

    8 decl: funDecl •

    $default  reduce using rule 8 (decl)


State 13

   22 funDecl: ID '(' • parms ')' stmt

    CHAR  shift, and go to state 1
    INT   shift, and go to state 2
    BOOL  shift, and go to state 3

    $default  reduce using rule 24 (parms)

    typeSpec      go to state 22
    parms         go to state 23
    parmList      go to state 24
    parmTypeList  go to state 25


State 14

    0 $accept: program $end •

    $default  accept


State 15

    3 precomList: precomList PRECOMPILER •

    $default  reduce using rule 3 (precomList)


State 16

    1 program: precomList declList •
    5 declList: declList • decl

    CHAR  shift, and go to state 1
    INT   shift, and go to state 2
    BOOL  shift, and go to state 3
    ID    shift, and go to state 5

    $default  reduce using rule 1 (program)

    decl      go to state 17
    varDecl   go to state 10
    typeSpec  go to state 11
    funDecl   go to state 12


State 17

    5 declList: declList decl •

    $default  reduce using rule 5 (declList)


State 18

   16 varDeclId: ID •
   17          | ID • '[' NUMCONST ']'
   21 funDecl: typeSpec ID • '(' parms ')' stmt

    '['  shift, and go to state 26
    '('  shift, and go to state 27

    $default  reduce using rule 16 (varDeclId)


State 19

    9 varDecl: typeSpec varDeclList • ';'
   12 varDeclList: varDeclList • ',' varDeclInit

    ','  shift, and go to state 28
    ';'  shift, and go to state 29


State 20

   13 varDeclList: varDeclInit •

    $default  reduce using rule 13 (varDeclList)


State 21

   14 varDeclInit: varDeclId •
   15            | varDeclId • ':' simpleExp

    ':'  shift, and go to state 30

    $default  reduce using rule 14 (varDeclInit)


State 22

   27 parmTypeList: typeSpec • parmIdList

    ID  shift, and go to state 31

    parmIdList  go to state 32
    parmId      go to state 33


State 23

   22 funDecl: ID '(' parms • ')' stmt

    ')'  shift, and go to state 34


State 24

   23 parms: parmList •
   25 parmList: parmList • ';' parmTypeList

    ';'  shift, and go to state 35

    $default  reduce using rule 23 (parms)


State 25

   26 parmList: parmTypeList •

    $default  reduce using rule 26 (parmList)


State 26

   17 varDeclId: ID '[' • NUMCONST ']'

    NUMCONST  shift, and go to state 36


State 27

   21 funDecl: typeSpec ID '(' • parms ')' stmt

    CHAR  shift, and go to state 1
    INT   shift, and go to state 2
    BOOL  shift, and go to state 3

    $default  reduce using rule 24 (parms)

    typeSpec      go to state 22
    parms         go to state 37
    parmList      go to state 24
    parmTypeList  go to state 25


State 28

   12 varDeclList: varDeclList ',' • varDeclInit

    ID  shift, and go to state 38

    varDeclInit  go to state 39
    varDeclId    go to state 21


State 29

    9 varDecl: typeSpec varDeclList ';' •

    $default  reduce using rule 9 (varDecl)


State 30

   15 varDeclInit: varDeclId ':' • simpleExp

    '-'          shift, and go to state 40
    '*'          shift, and go to state 41
    '?'          shift, and go to state 42
    '('          shift, and go to state 43
    NOT          shift, and go to state 44
    NUMCONST     shift, and go to state 45
    CHARCONST    shift, and go to state 46
    BOOLCONST    shift, and go to state 47
    STRINGCONST  shift, and go to state 48
    ID           shift, and go to state 49

    simpleExp    go to state 50
    andExp       go to state 51
    unaryRelExp  go to state 52
    relExp       go to state 53
    minmaxExp    go to state 54
    sumExp       go to state 55
    mulExp       go to state 56
    unaryExp     go to state 57
    unaryop      go to state 58
    factor       go to state 59
    mutable      go to state 60
    immutable    go to state 61
    call         go to state 62
    constant     go to state 63


State 31

   30 parmId: ID •
   31       | ID • '[' ']'

    '['  shift, and go to state 64

    $default  reduce using rule 30 (parmId)


State 32

   27 parmTypeList: typeSpec parmIdList •
   28 parmIdList: parmIdList • ',' parmId

    ','  shift, and go to state 65

    $default  reduce using rule 27 (parmTypeList)


State 33

   29 parmIdList: parmId •

    $default  reduce using rule 29 (parmIdList)


State 34

   22 funDecl: ID '(' parms ')' • stmt

    '-'          shift, and go to state 40
    '*'          shift, and go to state 41
    '?'          shift, and go to state 42
    '{'          shift, and go to state 66
    ';'          shift, and go to state 67
    '('          shift, and go to state 43
    NOT          shift, and go to state 44
    BREAK        shift, and go to state 68
    RETURN       shift, and go to state 69
    IF           shift, and go to state 70
    FOR          shift, and go to state 71
    WHILE        shift, and go to state 72
    NUMCONST     shift, and go to state 45
    CHARCONST    shift, and go to state 46
    BOOLCONST    shift, and go to state 47
    STRINGCONST  shift, and go to state 48
    ID           shift, and go to state 49

    stmt          go to state 73
    matched       go to state 74
    unmatched     go to state 75
    expStmt       go to state 76
    compoundStmt  go to state 77
    returnStmt    go to state 78
    breakStmt     go to state 79
    exp           go to state 80
    simpleExp     go to state 81
    andExp        go to state 51
    unaryRelExp   go to state 52
    relExp        go to state 53
    minmaxExp     go to state 54
    sumExp        go to state 55
    mulExp        go to state 56
    unaryExp      go to state 57
    unaryop       go to state 58
    factor        go to state 59
    mutable       go to state 82
    immutable     go to state 61
    call          go to state 62
    constant      go to state 63


State 35

   25 parmList: parmList ';' • parmTypeList

    CHAR  shift, and go to state 1
    INT   shift, and go to state 2
    BOOL  shift, and go to state 3

    typeSpec      go to state 22
    parmTypeList  go to state 83


State 36

   17 varDeclId: ID '[' NUMCONST • ']'

    ']'  shift, and go to state 84


State 37

   21 funDecl: typeSpec ID '(' parms • ')' stmt

    ')'  shift, and go to state 85


State 38

   16 varDeclId: ID •
   17          | ID • '[' NUMCONST ']'

    '['  shift, and go to state 26

    $default  reduce using rule 16 (varDeclId)


State 39

   12 varDeclList: varDeclList ',' varDeclInit •

    $default  reduce using rule 12 (varDeclList)


State 40

   95 unaryop: '-' •

    $default  reduce using rule 95 (unaryop)


State 41

   96 unaryop: '*' •

    $default  reduce using rule 96 (unaryop)


State 42

   97 unaryop: '?' •

    $default  reduce using rule 97 (unaryop)


State 43

  102 immutable: '(' • exp ')'

    '-'          shift, and go to state 40
    '*'          shift, and go to state 41
    '?'          shift, and go to state 42
    '('          shift, and go to state 43
    NOT          shift, and go to state 44
    NUMCONST     shift, and go to state 45
    CHARCONST    shift, and go to state 46
    BOOLCONST    shift, and go to state 47
    STRINGCONST  shift, and go to state 48
    ID           shift, and go to state 49

    exp          go to state 86
    simpleExp    go to state 81
    andExp       go to state 51
    unaryRelExp  go to state 52
    relExp       go to state 53
    minmaxExp    go to state 54
    sumExp       go to state 55
    mulExp       go to state 56
    unaryExp     go to state 57
    unaryop      go to state 58
    factor       go to state 59
    mutable      go to state 82
    immutable    go to state 61
    call         go to state 62
    constant     go to state 63


State 44

   70 unaryRelExp: NOT • unaryRelExp

    '-'          shift, and go to state 40
    '*'          shift, and go to state 41
    '?'          shift, and go to state 42
    '('          shift, and go to state 43
    NOT          shift, and go to state 44
    NUMCONST     shift, and go to state 45
    CHARCONST    shift, and go to state 46
    BOOLCONST    shift, and go to state 47
    STRINGCONST  shift, and go to state 48
    ID           shift, and go to state 49

    unaryRelExp  go to state 87
    relExp       go to state 53
    minmaxExp    go to state 54
    sumExp       go to state 55
    mulExp       go to state 56
    unaryExp     go to state 57
    unaryop      go to state 58
    factor       go to state 59
    mutable      go to state 60
    immutable    go to state 61
    call         go to state 62
    constant     go to state 63


State 45

  110 constant: NUMCONST •

    $default  reduce using rule 110 (constant)


State 46

  111 constant: CHARCONST •

    $default  reduce using rule 111 (constant)


State 47

  113 constant: BOOLCONST •

    $default  reduce using rule 113 (constant)


State 48

  112 constant: STRINGCONST •

    $default  reduce using rule 112 (constant)


State 49

  100 mutable: ID •
  101        | ID • '[' exp ']'
  105 call: ID • '(' args ')'

    '['  shift, and go to state 88
    '('  shift, and go to state 89

    $default  reduce using rule 100 (mutable)


State 50

   15 varDeclInit: varDeclId ':' simpleExp •
   66 simpleExp: simpleExp • OR andExp

    OR  shift, and go to state 90

    $default  reduce using rule 15 (varDeclInit)


State 51

   67 simpleExp: andExp •
   68 andExp: andExp • AND unaryRelExp

    AND  shift, and go to state 91

    $default  reduce using rule 67 (simpleExp)


State 52

   69 andExp: unaryRelExp •

    $default  reduce using rule 69 (andExp)


State 53

   71 unaryRelExp: relExp •

    $default  reduce using rule 71 (unaryRelExp)


State 54

   72 relExp: minmaxExp • relop minmaxExp
   73       | minmaxExp •
   80 minmaxExp: minmaxExp • minmaxop sumExp

    '<'  shift, and go to state 92
    '>'  shift, and go to state 93
    MIN  shift, and go to state 94
    MAX  shift, and go to state 95
    NEQ  shift, and go to state 96
    GEQ  shift, and go to state 97
    LEQ  shift, and go to state 98
    EQ   shift, and go to state 99

    $default  reduce using rule 73 (relExp)

    relop     go to state 100
    minmaxop  go to state 101


State 55

   81 minmaxExp: sumExp •
   84 sumExp: sumExp • sumop mulExp

    '+'  shift, and go to state 102
    '-'  shift, and go to state 103

    $default  reduce using rule 81 (minmaxExp)

    sumop  go to state 104


State 56

   85 sumExp: mulExp •
   88 mulExp: mulExp • mulop unaryExp

    '/'  shift, and go to state 105
    '*'  shift, and go to state 106
    '%'  shift, and go to state 107

    $default  reduce using rule 85 (sumExp)

    mulop  go to state 108


State 57

   89 mulExp: unaryExp •

    $default  reduce using rule 89 (mulExp)


State 58

   93 unaryExp: unaryop • unaryExp

    '-'          shift, and go to state 40
    '*'          shift, and go to state 41
    '?'          shift, and go to state 42
    '('          shift, and go to state 43
    NUMCONST     shift, and go to state 45
    CHARCONST    shift, and go to state 46
    BOOLCONST    shift, and go to state 47
    STRINGCONST  shift, and go to state 48
    ID           shift, and go to state 49

    unaryExp   go to state 109
    unaryop    go to state 58
    factor     go to state 59
    mutable    go to state 60
    immutable  go to state 61
    call       go to state 62
    constant   go to state 63


State 59

   94 unaryExp: factor •

    $default  reduce using rule 94 (unaryExp)


State 60

   99 factor: mutable •

    $default  reduce using rule 99 (factor)


State 61

   98 factor: immutable •

    $default  reduce using rule 98 (factor)


State 62

  103 immutable: call •

    $default  reduce using rule 103 (immutable)


State 63

  104 immutable: constant •

    $default  reduce using rule 104 (immutable)


State 64

   31 parmId: ID '[' • ']'

    ']'  shift, and go to state 110


State 65

   28 parmIdList: parmIdList ',' • parmId

    ID  shift, and go to state 31

    parmId  go to state 111


State 66

   49 compoundStmt: '{' • localDecls stmtList '}'

    $default  reduce using rule 51 (localDecls)

    localDecls  go to state 112


State 67

   48 expStmt: ';' •

    $default  reduce using rule 48 (expStmt)


State 68

   56 breakStmt: BREAK • ';'

    ';'  shift, and go to state 113


State 69

   54 returnStmt: RETURN • ';'
   55           | RETURN • exp ';'

    '-'          shift, and go to state 40
    '*'          shift, and go to state 41
    '?'          shift, and go to state 42
    ';'          shift, and go to state 114
    '('          shift, and go to state 43
    NOT          shift, and go to state 44
    NUMCONST     shift, and go to state 45
    CHARCONST    shift, and go to state 46
    BOOLCONST    shift, and go to state 47
    STRINGCONST  shift, and go to state 48
    ID           shift, and go to state 49

    exp          go to state 115
    simpleExp    go to state 81
    andExp       go to state 51
    unaryRelExp  go to state 52
    relExp       go to state 53
    minmaxExp    go to state 54
    sumExp       go to state 55
    mulExp       go to state 56
    unaryExp     go to state 57
    unaryop      go to state 58
    factor       go to state 59
    mutable      go to state 82
    immutable    go to state 61
    call         go to state 62
    constant     go to state 63


State 70

   34 matched: IF • simpleExp THEN matched ELSE matched
   43 unmatched: IF • simpleExp THEN stmt
   44          | IF • simpleExp THEN matched ELSE unmatched

    '-'          shift, and go to state 40
    '*'          shift, and go to state 41
    '?'          shift, and go to state 42
    '('          shift, and go to state 43
    NOT          shift, and go to state 44
    NUMCONST     shift, and go to state 45
    CHARCONST    shift, and go to state 46
    BOOLCONST    shift, and go to state 47
    STRINGCONST  shift, and go to state 48
    ID           shift, and go to state 49

    simpleExp    go to state 116
    andExp       go to state 51
    unaryRelExp  go to state 52
    relExp       go to state 53
    minmaxExp    go to state 54
    sumExp       go to state 55
    mulExp       go to state 56
    unaryExp     go to state 57
    unaryop      go to state 58
    factor       go to state 59
    mutable      go to state 60
    immutable    go to state 61
    call         go to state 62
    constant     go to state 63


State 71

   36 matched: FOR • ID '=' iterRange DO matched
   46 unmatched: FOR • ID '=' iterRange DO unmatched

    ID  shift, and go to state 117


State 72

   35 matched: WHILE • simpleExp DO matched
   45 unmatched: WHILE • simpleExp DO unmatched

    '-'          shift, and go to state 40
    '*'          shift, and go to state 41
    '?'          shift, and go to state 42
    '('          shift, and go to state 43
    NOT          shift, and go to state 44
    NUMCONST     shift, and go to state 45
    CHARCONST    shift, and go to state 46
    BOOLCONST    shift, and go to state 47
    STRINGCONST  shift, and go to state 48
    ID           shift, and go to state 49

    simpleExp    go to state 118
    andExp       go to state 51
    unaryRelExp  go to state 52
    relExp       go to state 53
    minmaxExp    go to state 54
    sumExp       go to state 55
    mulExp       go to state 56
    unaryExp     go to state 57
    unaryop      go to state 58
    factor       go to state 59
    mutable      go to state 60
    immutable    go to state 61
    call         go to state 62
    constant     go to state 63


State 73

   22 funDecl: ID '(' parms ')' stmt •

    $default  reduce using rule 22 (funDecl)


State 74

   32 stmt: matched •

    $default  reduce using rule 32 (stmt)


State 75

   33 stmt: unmatched •

    $default  reduce using rule 33 (stmt)


State 76

   37 matched: expStmt •

    $default  reduce using rule 37 (matched)


State 77

   38 matched: compoundStmt •

    $default  reduce using rule 38 (matched)


State 78

   39 matched: returnStmt •

    $default  reduce using rule 39 (matched)


State 79

   40 matched: breakStmt •

    $default  reduce using rule 40 (matched)


State 80

   47 expStmt: exp • ';'

    ';'  shift, and go to state 119


State 81

   60 exp: simpleExp •
   66 simpleExp: simpleExp • OR andExp

    OR  shift, and go to state 90

    $default  reduce using rule 60 (exp)


State 82

   57 exp: mutable • assignop exp
   58    | mutable • INC
   59    | mutable • DEC
   99 factor: mutable •

    '='     shift, and go to state 120
    DEC     shift, and go to state 121
    INC     shift, and go to state 122
    MULASS  shift, and go to state 123
    DIVASS  shift, and go to state 124
    ADDASS  shift, and go to state 125
    SUBASS  shift, and go to state 126

    $default  reduce using rule 99 (factor)

    assignop  go to state 127


State 83

   25 parmList: parmList ';' parmTypeList •

    $default  reduce using rule 25 (parmList)


State 84

   17 varDeclId: ID '[' NUMCONST ']' •

    $default  reduce using rule 17 (varDeclId)


State 85

   21 funDecl: typeSpec ID '(' parms ')' • stmt

    '-'          shift, and go to state 40
    '*'          shift, and go to state 41
    '?'          shift, and go to state 42
    '{'          shift, and go to state 66
    ';'          shift, and go to state 67
    '('          shift, and go to state 43
    NOT          shift, and go to state 44
    BREAK        shift, and go to state 68
    RETURN       shift, and go to state 69
    IF           shift, and go to state 70
    FOR          shift, and go to state 71
    WHILE        shift, and go to state 72
    NUMCONST     shift, and go to state 45
    CHARCONST    shift, and go to state 46
    BOOLCONST    shift, and go to state 47
    STRINGCONST  shift, and go to state 48
    ID           shift, and go to state 49

    stmt          go to state 128
    matched       go to state 74
    unmatched     go to state 75
    expStmt       go to state 76
    compoundStmt  go to state 77
    returnStmt    go to state 78
    breakStmt     go to state 79
    exp           go to state 80
    simpleExp     go to state 81
    andExp        go to state 51
    unaryRelExp   go to state 52
    relExp        go to state 53
    minmaxExp     go to state 54
    sumExp        go to state 55
    mulExp        go to state 56
    unaryExp      go to state 57
    unaryop       go to state 58
    factor        go to state 59
    mutable       go to state 82
    immutable     go to state 61
    call          go to state 62
    constant      go to state 63


State 86

  102 immutable: '(' exp • ')'

    ')'  shift, and go to state 129


State 87

   70 unaryRelExp: NOT unaryRelExp •

    $default  reduce using rule 70 (unaryRelExp)


State 88

  101 mutable: ID '[' • exp ']'

    '-'          shift, and go to state 40
    '*'          shift, and go to state 41
    '?'          shift, and go to state 42
    '('          shift, and go to state 43
    NOT          shift, and go to state 44
    NUMCONST     shift, and go to state 45
    CHARCONST    shift, and go to state 46
    BOOLCONST    shift, and go to state 47
    STRINGCONST  shift, and go to state 48
    ID           shift, and go to state 49

    exp          go to state 130
    simpleExp    go to state 81
    andExp       go to state 51
    unaryRelExp  go to state 52
    relExp       go to state 53
    minmaxExp    go to state 54
    sumExp       go to state 55
    mulExp       go to state 56
    unaryExp     go to state 57
    unaryop      go to state 58
    factor       go to state 59
    mutable      go to state 82
    immutable    go to state 61
    call         go to state 62
    constant     go to state 63


State 89

  105 call: ID '(' • args ')'

    '-'          shift, and go to state 40
    '*'          shift, and go to state 41
    '?'          shift, and go to state 42
    '('          shift, and go to state 43
    NOT          shift, and go to state 44
    NUMCONST     shift, and go to state 45
    CHARCONST    shift, and go to state 46
    BOOLCONST    shift, and go to state 47
    STRINGCONST  shift, and go to state 48
    ID           shift, and go to state 49

    $default  reduce using rule 107 (args)

    exp          go to state 131
    simpleExp    go to state 81
    andExp       go to state 51
    unaryRelExp  go to state 52
    relExp       go to state 53
    minmaxExp    go to state 54
    sumExp       go to state 55
    mulExp       go to state 56
    unaryExp     go to state 57
    unaryop      go to state 58
    factor       go to state 59
    mutable      go to state 82
    immutable    go to state 61
    call         go to state 62
    args         go to state 132
    argList      go to state 133
    constant     go to state 63


State 90

   66 simpleExp: simpleExp OR • andExp

    '-'          shift, and go to state 40
    '*'          shift, and go to state 41
    '?'          shift, and go to state 42
    '('          shift, and go to state 43
    NOT          shift, and go to state 44
    NUMCONST     shift, and go to state 45
    CHARCONST    shift, and go to state 46
    BOOLCONST    shift, and go to state 47
    STRINGCONST  shift, and go to state 48
    ID           shift, and go to state 49

    andExp       go to state 134
    unaryRelExp  go to state 52
    relExp       go to state 53
    minmaxExp    go to state 54
    sumExp       go to state 55
    mulExp       go to state 56
    unaryExp     go to state 57
    unaryop      go to state 58
    factor       go to state 59
    mutable      go to state 60
    immutable    go to state 61
    call         go to state 62
    constant     go to state 63


State 91

   68 andExp: andExp AND • unaryRelExp

    '-'          shift, and go to state 40
    '*'          shift, and go to state 41
    '?'          shift, and go to state 42
    '('          shift, and go to state 43
    NOT          shift, and go to state 44
    NUMCONST     shift, and go to state 45
    CHARCONST    shift, and go to state 46
    BOOLCONST    shift, and go to state 47
    STRINGCONST  shift, and go to state 48
    ID           shift, and go to state 49

    unaryRelExp  go to state 135
    relExp       go to state 53
    minmaxExp    go to state 54
    sumExp       go to state 55
    mulExp       go to state 56
    unaryExp     go to state 57
    unaryop      go to state 58
    factor       go to state 59
    mutable      go to state 60
    immutable    go to state 61
    call         go to state 62
    constant     go to state 63


State 92

   75 relop: '<' •

    $default  reduce using rule 75 (relop)


State 93

   76 relop: '>' •

    $default  reduce using rule 76 (relop)


State 94

   83 minmaxop: MIN •

    $default  reduce using rule 83 (minmaxop)


State 95

   82 minmaxop: MAX •

    $default  reduce using rule 82 (minmaxop)


State 96

   79 relop: NEQ •

    $default  reduce using rule 79 (relop)


State 97

   77 relop: GEQ •

    $default  reduce using rule 77 (relop)


State 98

   74 relop: LEQ •

    $default  reduce using rule 74 (relop)


State 99

   78 relop: EQ •

    $default  reduce using rule 78 (relop)


State 100

   72 relExp: minmaxExp relop • minmaxExp

    '-'          shift, and go to state 40
    '*'          shift, and go to state 41
    '?'          shift, and go to state 42
    '('          shift, and go to state 43
    NUMCONST     shift, and go to state 45
    CHARCONST    shift, and go to state 46
    BOOLCONST    shift, and go to state 47
    STRINGCONST  shift, and go to state 48
    ID           shift, and go to state 49

    minmaxExp  go to state 136
    sumExp     go to state 55
    mulExp     go to state 56
    unaryExp   go to state 57
    unaryop    go to state 58
    factor     go to state 59
    mutable    go to state 60
    immutable  go to state 61
    call       go to state 62
    constant   go to state 63


State 101

   80 minmaxExp: minmaxExp minmaxop • sumExp

    '-'          shift, and go to state 40
    '*'          shift, and go to state 41
    '?'          shift, and go to state 42
    '('          shift, and go to state 43
    NUMCONST     shift, and go to state 45
    CHARCONST    shift, and go to state 46
    BOOLCONST    shift, and go to state 47
    STRINGCONST  shift, and go to state 48
    ID           shift, and go to state 49

    sumExp     go to state 137
    mulExp     go to state 56
    unaryExp   go to state 57
    unaryop    go to state 58
    factor     go to state 59
    mutable    go to state 60
    immutable  go to state 61
    call       go to state 62
    constant   go to state 63


State 102

   86 sumop: '+' •

    $default  reduce using rule 86 (sumop)


State 103

   87 sumop: '-' •

    $default  reduce using rule 87 (sumop)


State 104

   84 sumExp: sumExp sumop • mulExp

    '-'          shift, and go to state 40
    '*'          shift, and go to state 41
    '?'          shift, and go to state 42
    '('          shift, and go to state 43
    NUMCONST     shift, and go to state 45
    CHARCONST    shift, and go to state 46
    BOOLCONST    shift, and go to state 47
    STRINGCONST  shift, and go to state 48
    ID           shift, and go to state 49

    mulExp     go to state 138
    unaryExp   go to state 57
    unaryop    go to state 58
    factor     go to state 59
    mutable    go to state 60
    immutable  go to state 61
    call       go to state 62
    constant   go to state 63


State 105

   91 mulop: '/' •

    $default  reduce using rule 91 (mulop)


State 106

   90 mulop: '*' •

    $default  reduce using rule 90 (mulop)


State 107

   92 mulop: '%' •

    $default  reduce using rule 92 (mulop)


State 108

   88 mulExp: mulExp mulop • unaryExp

    '-'          shift, and go to state 40
    '*'          shift, and go to state 41
    '?'          shift, and go to state 42
    '('          shift, and go to state 43
    NUMCONST     shift, and go to state 45
    CHARCONST    shift, and go to state 46
    BOOLCONST    shift, and go to state 47
    STRINGCONST  shift, and go to state 48
    ID           shift, and go to state 49

    unaryExp   go to state 139
    unaryop    go to state 58
    factor     go to state 59
    mutable    go to state 60
    immutable  go to state 61
    call       go to state 62
    constant   go to state 63


State 109

   93 unaryExp: unaryop unaryExp •

    $default  reduce using rule 93 (unaryExp)


State 110

   31 parmId: ID '[' ']' •

    $default  reduce using rule 31 (parmId)


State 111

   28 parmIdList: parmIdList ',' parmId •

    $default  reduce using rule 28 (parmIdList)


State 112

   49 compoundStmt: '{' localDecls • stmtList '}'
   50 localDecls: localDecls • scopedVarDecl

    STATIC  shift, and go to state 140
    CHAR    shift, and go to state 1
    INT     shift, and go to state 2
    BOOL    shift, and go to state 3

    $default  reduce using rule 53 (stmtList)

    scopedVarDecl  go to state 141
    typeSpec       go to state 142
    stmtList       go to state 143


State 113

   56 breakStmt: BREAK ';' •

    $default  reduce using rule 56 (breakStmt)


State 114

   54 returnStmt: RETURN ';' •

    $default  reduce using rule 54 (returnStmt)


State 115

   55 returnStmt: RETURN exp • ';'

    ';'  shift, and go to state 144


State 116

   34 matched: IF simpleExp • THEN matched ELSE matched
   43 unmatched: IF simpleExp • THEN stmt
   44          | IF simpleExp • THEN matched ELSE unmatched
   66 simpleExp: simpleExp • OR andExp

    OR    shift, and go to state 90
    THEN  shift, and go to state 145


State 117

   36 matched: FOR ID • '=' iterRange DO matched
   46 unmatched: FOR ID • '=' iterRange DO unmatched

    '='  shift, and go to state 146


State 118

   35 matched: WHILE simpleExp • DO matched
   45 unmatched: WHILE simpleExp • DO unmatched
   66 simpleExp: simpleExp • OR andExp

    OR  shift, and go to state 90
    DO  shift, and go to state 147


State 119

   47 expStmt: exp ';' •

    $default  reduce using rule 47 (expStmt)


State 120

   61 assignop: '=' •

    $default  reduce using rule 61 (assignop)


State 121

   59 exp: mutable DEC •

    $default  reduce using rule 59 (exp)


State 122

   58 exp: mutable INC •

    $default  reduce using rule 58 (exp)


State 123

   64 assignop: MULASS •

    $default  reduce using rule 64 (assignop)


State 124

   65 assignop: DIVASS •

    $default  reduce using rule 65 (assignop)


State 125

   62 assignop: ADDASS •

    $default  reduce using rule 62 (assignop)


State 126

   63 assignop: SUBASS •

    $default  reduce using rule 63 (assignop)


State 127

   57 exp: mutable assignop • exp

    '-'          shift, and go to state 40
    '*'          shift, and go to state 41
    '?'          shift, and go to state 42
    '('          shift, and go to state 43
    NOT          shift, and go to state 44
    NUMCONST     shift, and go to state 45
    CHARCONST    shift, and go to state 46
    BOOLCONST    shift, and go to state 47
    STRINGCONST  shift, and go to state 48
    ID           shift, and go to state 49

    exp          go to state 148
    simpleExp    go to state 81
    andExp       go to state 51
    unaryRelExp  go to state 52
    relExp       go to state 53
    minmaxExp    go to state 54
    sumExp       go to state 55
    mulExp       go to state 56
    unaryExp     go to state 57
    unaryop      go to state 58
    factor       go to state 59
    mutable      go to state 82
    immutable    go to state 61
    call         go to state 62
    constant     go to state 63


State 128

   21 funDecl: typeSpec ID '(' parms ')' stmt •

    $default  reduce using rule 21 (funDecl)


State 129

  102 immutable: '(' exp ')' •

    $default  reduce using rule 102 (immutable)


State 130

  101 mutable: ID '[' exp • ']'

    ']'  shift, and go to state 149


State 131

  109 argList: exp •

    $default  reduce using rule 109 (argList)


State 132

  105 call: ID '(' args • ')'

    ')'  shift, and go to state 150


State 133

  106 args: argList •
  108 argList: argList • ',' exp

    ','  shift, and go to state 151

    $default  reduce using rule 106 (args)


State 134

   66 simpleExp: simpleExp OR andExp •
   68 andExp: andExp • AND unaryRelExp

    AND  shift, and go to state 91

    $default  reduce using rule 66 (simpleExp)


State 135

   68 andExp: andExp AND unaryRelExp •

    $default  reduce using rule 68 (andExp)


State 136

   72 relExp: minmaxExp relop minmaxExp •
   80 minmaxExp: minmaxExp • minmaxop sumExp

    MIN  shift, and go to state 94
    MAX  shift, and go to state 95

    $default  reduce using rule 72 (relExp)

    minmaxop  go to state 101


State 137

   80 minmaxExp: minmaxExp minmaxop sumExp •
   84 sumExp: sumExp • sumop mulExp

    '+'  shift, and go to state 102
    '-'  shift, and go to state 103

    $default  reduce using rule 80 (minmaxExp)

    sumop  go to state 104


State 138

   84 sumExp: sumExp sumop mulExp •
   88 mulExp: mulExp • mulop unaryExp

    '/'  shift, and go to state 105
    '*'  shift, and go to state 106
    '%'  shift, and go to state 107

    $default  reduce using rule 84 (sumExp)

    mulop  go to state 108


State 139

   88 mulExp: mulExp mulop unaryExp •

    $default  reduce using rule 88 (mulExp)


State 140

   10 scopedVarDecl: STATIC • typeSpec varDeclList ';'

    CHAR  shift, and go to state 1
    INT   shift, and go to state 2
    BOOL  shift, and go to state 3

    typeSpec  go to state 152


State 141

   50 localDecls: localDecls scopedVarDecl •

    $default  reduce using rule 50 (localDecls)


State 142

   11 scopedVarDecl: typeSpec • varDeclList ';'

    ID  shift, and go to state 38

    varDeclList  go to state 153
    varDeclInit  go to state 20
    varDeclId    go to state 21


State 143

   49 compoundStmt: '{' localDecls stmtList • '}'
   52 stmtList: stmtList • stmt

    '-'          shift, and go to state 40
    '*'          shift, and go to state 41
    '?'          shift, and go to state 42
    '{'          shift, and go to state 66
    '}'          shift, and go to state 154
    ';'          shift, and go to state 67
    '('          shift, and go to state 43
    NOT          shift, and go to state 44
    BREAK        shift, and go to state 68
    RETURN       shift, and go to state 69
    IF           shift, and go to state 70
    FOR          shift, and go to state 71
    WHILE        shift, and go to state 72
    NUMCONST     shift, and go to state 45
    CHARCONST    shift, and go to state 46
    BOOLCONST    shift, and go to state 47
    STRINGCONST  shift, and go to state 48
    ID           shift, and go to state 49

    stmt          go to state 155
    matched       go to state 74
    unmatched     go to state 75
    expStmt       go to state 76
    compoundStmt  go to state 77
    returnStmt    go to state 78
    breakStmt     go to state 79
    exp           go to state 80
    simpleExp     go to state 81
    andExp        go to state 51
    unaryRelExp   go to state 52
    relExp        go to state 53
    minmaxExp     go to state 54
    sumExp        go to state 55
    mulExp        go to state 56
    unaryExp      go to state 57
    unaryop       go to state 58
    factor        go to state 59
    mutable       go to state 82
    immutable     go to state 61
    call          go to state 62
    constant      go to state 63


State 144

   55 returnStmt: RETURN exp ';' •

    $default  reduce using rule 55 (returnStmt)


State 145

   34 matched: IF simpleExp THEN • matched ELSE matched
   43 unmatched: IF simpleExp THEN • stmt
   44          | IF simpleExp THEN • matched ELSE unmatched

    '-'          shift, and go to state 40
    '*'          shift, and go to state 41
    '?'          shift, and go to state 42
    '{'          shift, and go to state 66
    ';'          shift, and go to state 67
    '('          shift, and go to state 43
    NOT          shift, and go to state 44
    BREAK        shift, and go to state 68
    RETURN       shift, and go to state 69
    IF           shift, and go to state 70
    FOR          shift, and go to state 71
    WHILE        shift, and go to state 72
    NUMCONST     shift, and go to state 45
    CHARCONST    shift, and go to state 46
    BOOLCONST    shift, and go to state 47
    STRINGCONST  shift, and go to state 48
    ID           shift, and go to state 49

    stmt          go to state 156
    matched       go to state 157
    unmatched     go to state 75
    expStmt       go to state 76
    compoundStmt  go to state 77
    returnStmt    go to state 78
    breakStmt     go to state 79
    exp           go to state 80
    simpleExp     go to state 81
    andExp        go to state 51
    unaryRelExp   go to state 52
    relExp        go to state 53
    minmaxExp     go to state 54
    sumExp        go to state 55
    mulExp        go to state 56
    unaryExp      go to state 57
    unaryop       go to state 58
    factor        go to state 59
    mutable       go to state 82
    immutable     go to state 61
    call          go to state 62
    constant      go to state 63


State 146

   36 matched: FOR ID '=' • iterRange DO matched
   46 unmatched: FOR ID '=' • iterRange DO unmatched

    '-'          shift, and go to state 40
    '*'          shift, and go to state 41
    '?'          shift, and go to state 42
    '('          shift, and go to state 43
    NOT          shift, and go to state 44
    NUMCONST     shift, and go to state 45
    CHARCONST    shift, and go to state 46
    BOOLCONST    shift, and go to state 47
    STRINGCONST  shift, and go to state 48
    ID           shift, and go to state 49

    iterRange    go to state 158
    simpleExp    go to state 159
    andExp       go to state 51
    unaryRelExp  go to state 52
    relExp       go to state 53
    minmaxExp    go to state 54
    sumExp       go to state 55
    mulExp       go to state 56
    unaryExp     go to state 57
    unaryop      go to state 58
    factor       go to state 59
    mutable      go to state 60
    immutable    go to state 61
    call         go to state 62
    constant     go to state 63


State 147

   35 matched: WHILE simpleExp DO • matched
   45 unmatched: WHILE simpleExp DO • unmatched

    '-'          shift, and go to state 40
    '*'          shift, and go to state 41
    '?'          shift, and go to state 42
    '{'          shift, and go to state 66
    ';'          shift, and go to state 67
    '('          shift, and go to state 43
    NOT          shift, and go to state 44
    BREAK        shift, and go to state 68
    RETURN       shift, and go to state 69
    IF           shift, and go to state 70
    FOR          shift, and go to state 71
    WHILE        shift, and go to state 72
    NUMCONST     shift, and go to state 45
    CHARCONST    shift, and go to state 46
    BOOLCONST    shift, and go to state 47
    STRINGCONST  shift, and go to state 48
    ID           shift, and go to state 49

    matched       go to state 160
    unmatched     go to state 161
    expStmt       go to state 76
    compoundStmt  go to state 77
    returnStmt    go to state 78
    breakStmt     go to state 79
    exp           go to state 80
    simpleExp     go to state 81
    andExp        go to state 51
    unaryRelExp   go to state 52
    relExp        go to state 53
    minmaxExp     go to state 54
    sumExp        go to state 55
    mulExp        go to state 56
    unaryExp      go to state 57
    unaryop       go to state 58
    factor        go to state 59
    mutable       go to state 82
    immutable     go to state 61
    call          go to state 62
    constant      go to state 63


State 148

   57 exp: mutable assignop exp •

    $default  reduce using rule 57 (exp)


State 149

  101 mutable: ID '[' exp ']' •

    $default  reduce using rule 101 (mutable)


State 150

  105 call: ID '(' args ')' •

    $default  reduce using rule 105 (call)


State 151

  108 argList: argList ',' • exp

    '-'          shift, and go to state 40
    '*'          shift, and go to state 41
    '?'          shift, and go to state 42
    '('          shift, and go to state 43
    NOT          shift, and go to state 44
    NUMCONST     shift, and go to state 45
    CHARCONST    shift, and go to state 46
    BOOLCONST    shift, and go to state 47
    STRINGCONST  shift, and go to state 48
    ID           shift, and go to state 49

    exp          go to state 162
    simpleExp    go to state 81
    andExp       go to state 51
    unaryRelExp  go to state 52
    relExp       go to state 53
    minmaxExp    go to state 54
    sumExp       go to state 55
    mulExp       go to state 56
    unaryExp     go to state 57
    unaryop      go to state 58
    factor       go to state 59
    mutable      go to state 82
    immutable    go to state 61
    call         go to state 62
    constant     go to state 63


State 152

   10 scopedVarDecl: STATIC typeSpec • varDeclList ';'

    ID  shift, and go to state 38

    varDeclList  go to state 163
    varDeclInit  go to state 20
    varDeclId    go to state 21


State 153

   11 scopedVarDecl: typeSpec varDeclList • ';'
   12 varDeclList: varDeclList • ',' varDeclInit

    ','  shift, and go to state 28
    ';'  shift, and go to state 164


State 154

   49 compoundStmt: '{' localDecls stmtList '}' •

    $default  reduce using rule 49 (compoundStmt)


State 155

   52 stmtList: stmtList stmt •

    $default  reduce using rule 52 (stmtList)


State 156

   43 unmatched: IF simpleExp THEN stmt •

    $default  reduce using rule 43 (unmatched)


State 157

   32 stmt: matched •
   34 matched: IF simpleExp THEN matched • ELSE matched
   44 unmatched: IF simpleExp THEN matched • ELSE unmatched

    ELSE  shift, and go to state 165

    $default  reduce using rule 32 (stmt)


State 158

   36 matched: FOR ID '=' iterRange • DO matched
   46 unmatched: FOR ID '=' iterRange • DO unmatched

    DO  shift, and go to state 166


State 159

   41 iterRange: simpleExp • TO simpleExp
   42          | simpleExp • TO simpleExp BY simpleExp
   66 simpleExp: simpleExp • OR andExp

    OR  shift, and go to state 90
    TO  shift, and go to state 167


State 160

   35 matched: WHILE simpleExp DO matched •

    $default  reduce using rule 35 (matched)


State 161

   45 unmatched: WHILE simpleExp DO unmatched •

    $default  reduce using rule 45 (unmatched)


State 162

  108 argList: argList ',' exp •

    $default  reduce using rule 108 (argList)


State 163

   10 scopedVarDecl: STATIC typeSpec varDeclList • ';'
   12 varDeclList: varDeclList • ',' varDeclInit

    ','  shift, and go to state 28
    ';'  shift, and go to state 168


State 164

   11 scopedVarDecl: typeSpec varDeclList ';' •

    $default  reduce using rule 11 (scopedVarDecl)


State 165

   34 matched: IF simpleExp THEN matched ELSE • matched
   44 unmatched: IF simpleExp THEN matched ELSE • unmatched

    '-'          shift, and go to state 40
    '*'          shift, and go to state 41
    '?'          shift, and go to state 42
    '{'          shift, and go to state 66
    ';'          shift, and go to state 67
    '('          shift, and go to state 43
    NOT          shift, and go to state 44
    BREAK        shift, and go to state 68
    RETURN       shift, and go to state 69
    IF           shift, and go to state 70
    FOR          shift, and go to state 71
    WHILE        shift, and go to state 72
    NUMCONST     shift, and go to state 45
    CHARCONST    shift, and go to state 46
    BOOLCONST    shift, and go to state 47
    STRINGCONST  shift, and go to state 48
    ID           shift, and go to state 49

    matched       go to state 169
    unmatched     go to state 170
    expStmt       go to state 76
    compoundStmt  go to state 77
    returnStmt    go to state 78
    breakStmt     go to state 79
    exp           go to state 80
    simpleExp     go to state 81
    andExp        go to state 51
    unaryRelExp   go to state 52
    relExp        go to state 53
    minmaxExp     go to state 54
    sumExp        go to state 55
    mulExp        go to state 56
    unaryExp      go to state 57
    unaryop       go to state 58
    factor        go to state 59
    mutable       go to state 82
    immutable     go to state 61
    call          go to state 62
    constant      go to state 63


State 166

   36 matched: FOR ID '=' iterRange DO • matched
   46 unmatched: FOR ID '=' iterRange DO • unmatched

    '-'          shift, and go to state 40
    '*'          shift, and go to state 41
    '?'          shift, and go to state 42
    '{'          shift, and go to state 66
    ';'          shift, and go to state 67
    '('          shift, and go to state 43
    NOT          shift, and go to state 44
    BREAK        shift, and go to state 68
    RETURN       shift, and go to state 69
    IF           shift, and go to state 70
    FOR          shift, and go to state 71
    WHILE        shift, and go to state 72
    NUMCONST     shift, and go to state 45
    CHARCONST    shift, and go to state 46
    BOOLCONST    shift, and go to state 47
    STRINGCONST  shift, and go to state 48
    ID           shift, and go to state 49

    matched       go to state 171
    unmatched     go to state 172
    expStmt       go to state 76
    compoundStmt  go to state 77
    returnStmt    go to state 78
    breakStmt     go to state 79
    exp           go to state 80
    simpleExp     go to state 81
    andExp        go to state 51
    unaryRelExp   go to state 52
    relExp        go to state 53
    minmaxExp     go to state 54
    sumExp        go to state 55
    mulExp        go to state 56
    unaryExp      go to state 57
    unaryop       go to state 58
    factor        go to state 59
    mutable       go to state 82
    immutable     go to state 61
    call          go to state 62
    constant      go to state 63


State 167

   41 iterRange: simpleExp TO • simpleExp
   42          | simpleExp TO • simpleExp BY simpleExp

    '-'          shift, and go to state 40
    '*'          shift, and go to state 41
    '?'          shift, and go to state 42
    '('          shift, and go to state 43
    NOT          shift, and go to state 44
    NUMCONST     shift, and go to state 45
    CHARCONST    shift, and go to state 46
    BOOLCONST    shift, and go to state 47
    STRINGCONST  shift, and go to state 48
    ID           shift, and go to state 49

    simpleExp    go to state 173
    andExp       go to state 51
    unaryRelExp  go to state 52
    relExp       go to state 53
    minmaxExp    go to state 54
    sumExp       go to state 55
    mulExp       go to state 56
    unaryExp     go to state 57
    unaryop      go to state 58
    factor       go to state 59
    mutable      go to state 60
    immutable    go to state 61
    call         go to state 62
    constant     go to state 63


State 168

   10 scopedVarDecl: STATIC typeSpec varDeclList ';' •

    $default  reduce using rule 10 (scopedVarDecl)


State 169

   34 matched: IF simpleExp THEN matched ELSE matched •

    $default  reduce using rule 34 (matched)


State 170

   44 unmatched: IF simpleExp THEN matched ELSE unmatched •

    $default  reduce using rule 44 (unmatched)


State 171

   36 matched: FOR ID '=' iterRange DO matched •

    $default  reduce using rule 36 (matched)


State 172

   46 unmatched: FOR ID '=' iterRange DO unmatched •

    $default  reduce using rule 46 (unmatched)


State 173

   41 iterRange: simpleExp TO simpleExp •
   42          | simpleExp TO simpleExp • BY simpleExp
   66 simpleExp: simpleExp • OR andExp

    OR  shift, and go to state 90
    BY  shift, and go to state 174

    $default  reduce using rule 41 (iterRange)


State 174

   42 iterRange: simpleExp TO simpleExp BY • simpleExp

    '-'          shift, and go to state 40
    '*'          shift, and go to state 41
    '?'          shift, and go to state 42
    '('          shift, and go to state 43
    NOT          shift, and go to state 44
    NUMCONST     shift, and go to state 45
    CHARCONST    shift, and go to state 46
    BOOLCONST    shift, and go to state 47
    STRINGCONST  shift, and go to state 48
    ID           shift, and go to state 49

    simpleExp    go to state 175
    andExp       go to state 51
    unaryRelExp  go to state 52
    relExp       go to state 53
    minmaxExp    go to state 54
    sumExp       go to state 55
    mulExp       go to state 56
    unaryExp     go to state 57
    unaryop      go to state 58
    factor       go to state 59
    mutable      go to state 60
    immutable    go to state 61
    call         go to state 62
    constant     go to state 63


State 175

   42 iterRange: simpleExp TO simpleExp BY simpleExp •
   66 simpleExp: simpleExp • OR andExp

    OR  shift, and go to state 90

    $default  reduce using rule 42 (iterRange)
